Mixed-Effects Models: A Practical Guide
…
# some set up! 
using DataFrames, CSV, Base.Filesystem
#  project_root = @__DIR__ # if we need to double check where the directory is pointing rn 
# load the data from local location
field_data = CSV.read(
    joinpath(@__DIR__, "./data/crop_yield_data.csv"),
    DataFrame
)

150×4 DataFrame
 Row │ farm_id  plot_id  soil_pH  yield
     │ Int64    Int64    Float64  Float64
─────┼─────────────────────────────────────
   1 │       1        1  7.06464  143.0
   2 │       1        2  6.57797  106.061
   3 │       1        3  6.32341  122.438
   4 │       1        4  6.38518  137.577
   5 │       1        5  6.41172  112.132
   6 │       1        6  6.19462   92.6556
   7 │       1        7  7.32745  135.555
   8 │       1        8  5.90546  118.104
  ⋮  │    ⋮        ⋮        ⋮        ⋮
 144 │       5      144  5.40329   65.022
 145 │       5      145  5.96985   81.1347
 146 │       5      146  6.85269   77.3114
 147 │       5      147  6.1639    65.7406
 148 │       5      148  6.52858   64.3481
 149 │       5      149  6.86806   69.387
 150 │       5      150  6.73596   87.4023
                           135 rows omitted
…
